EESchema Schematic File Version 4
EELAYER 30 0
EELAYER END
$Descr A4 11693 8268
encoding utf-8
Sheet 1 1
Title ""
Date ""
Rev ""
Comp ""
Comment1 ""
Comment2 ""
Comment3 ""
Comment4 ""
$EndDescr
Wire Wire Line
	4100 3850 3950 3850
$Comp
L power:+1V2 #PWR010
U 1 1 5F0EC209
P 3950 3050
F 0 "#PWR010" H 3950 2900 50  0001 C CNN
F 1 "+1V2" H 3965 3223 50  0000 C CNN
F 2 "" H 3950 3050 50  0001 C CNN
F 3 "" H 3950 3050 50  0001 C CNN
	1    3950 3050
	1    0    0    -1  
$EndComp
$Comp
L power:+3.3V #PWR024
U 1 1 5F0EC8D2
P 3500 4750
F 0 "#PWR024" H 3500 4600 50  0001 C CNN
F 1 "+3.3V" H 3515 4923 50  0000 C CNN
F 2 "" H 3500 4750 50  0001 C CNN
F 3 "" H 3500 4750 50  0001 C CNN
	1    3500 4750
	1    0    0    -1  
$EndComp
$Comp
L power:GND #PWR028
U 1 1 5F0EE903
P 5900 5050
F 0 "#PWR028" H 5900 4800 50  0001 C CNN
F 1 "GND" H 5905 4877 50  0000 C CNN
F 2 "" H 5900 5050 50  0001 C CNN
F 3 "" H 5900 5050 50  0001 C CNN
	1    5900 5050
	1    0    0    -1  
$EndComp
Wire Wire Line
	3500 4750 4100 4750
$Comp
L power:+3.3V #PWR012
U 1 1 5F0F013D
P 5900 3150
F 0 "#PWR012" H 5900 3000 50  0001 C CNN
F 1 "+3.3V" H 5915 3323 50  0000 C CNN
F 2 "" H 5900 3150 50  0001 C CNN
F 3 "" H 5900 3150 50  0001 C CNN
	1    5900 3150
	1    0    0    -1  
$EndComp
Wire Wire Line
	5800 4450 5900 4450
Wire Wire Line
	5900 4450 5900 4950
Wire Wire Line
	5800 4950 5900 4950
Connection ~ 5900 4950
Wire Wire Line
	5900 4950 5900 5050
$Comp
L power:+1V2 #PWR026
U 1 1 5F0F193D
P 6400 4850
F 0 "#PWR026" H 6400 4700 50  0001 C CNN
F 1 "+1V2" H 6415 5023 50  0000 C CNN
F 2 "" H 6400 4850 50  0001 C CNN
F 3 "" H 6400 4850 50  0001 C CNN
	1    6400 4850
	1    0    0    -1  
$EndComp
Wire Wire Line
	6400 4850 5800 4850
Wire Wire Line
	4100 3650 3800 3650
Text Label 3800 3650 2    50   ~ 0
nRST
Wire Wire Line
	5800 3850 6000 3850
Text Label 6000 3850 0    50   ~ 0
clk
Wire Wire Line
	3800 4450 4100 4450
Text Label 3800 4450 2    50   ~ 0
TDI
Wire Wire Line
	4100 4650 3800 4650
Text Label 3800 4650 2    50   ~ 0
TMS
Wire Wire Line
	5800 3450 6000 3450
Text Label 6000 3450 0    50   ~ 0
TCK
Wire Wire Line
	5800 3550 5900 3550
Wire Wire Line
	5900 3550 5900 3150
Wire Wire Line
	5800 3350 6000 3350
Text Label 6000 3350 0    50   ~ 0
TDO
Wire Wire Line
	4100 4250 3800 4250
Wire Wire Line
	3800 4150 4100 4150
Wire Wire Line
	3800 3950 4100 3950
Wire Wire Line
	3800 3550 4100 3550
Wire Wire Line
	3800 3450 4100 3450
Wire Wire Line
	3800 3350 4100 3350
Wire Wire Line
	4100 4350 3800 4350
Wire Wire Line
	4100 4550 3800 4550
Wire Wire Line
	4100 4850 3800 4850
Wire Wire Line
	4100 4950 3800 4950
Wire Wire Line
	5800 3250 6000 3250
Wire Wire Line
	5800 3650 6000 3650
Wire Wire Line
	5800 3750 6000 3750
Wire Wire Line
	5800 4350 6000 4350
Wire Wire Line
	5800 4550 6000 4550
Wire Wire Line
	5800 4650 6000 4650
Wire Wire Line
	5800 4750 6000 4750
$Comp
L Connector_Generic:Conn_02x05_Odd_Even J2
U 1 1 5F10A7EF
P 6800 4050
F 0 "J2" H 6850 4467 50  0000 C CNN
F 1 "Conn_02x05_Odd_Even" H 6850 4376 50  0000 C CNN
F 2 "Pin_Headers:Pin_Header_Straight_2x05_Pitch2.54mm" H 6800 4050 50  0001 C CNN
F 3 "~" H 6800 4050 50  0001 C CNN
	1    6800 4050
	1    0    0    -1  
$EndComp
Wire Wire Line
	7100 3850 7200 3850
Wire Wire Line
	7200 3850 7200 4250
Wire Wire Line
	7100 4250 7200 4250
Connection ~ 7200 4250
Wire Wire Line
	7200 4250 7200 4400
$Comp
L power:GND #PWR020
U 1 1 5F10DA76
P 7200 4400
F 0 "#PWR020" H 7200 4150 50  0001 C CNN
F 1 "GND" H 7205 4227 50  0000 C CNN
F 2 "" H 7200 4400 50  0001 C CNN
F 3 "" H 7200 4400 50  0001 C CNN
	1    7200 4400
	1    0    0    -1  
$EndComp
Wire Wire Line
	7100 3950 7350 3950
Wire Wire Line
	7350 3950 7350 3850
$Comp
L power:+3.3V #PWR016
U 1 1 5F10EEFA
P 7350 3850
F 0 "#PWR016" H 7350 3700 50  0001 C CNN
F 1 "+3.3V" H 7365 4023 50  0000 C CNN
F 2 "" H 7350 3850 50  0001 C CNN
F 3 "" H 7350 3850 50  0001 C CNN
	1    7350 3850
	1    0    0    -1  
$EndComp
Wire Wire Line
	6600 3850 6500 3850
Wire Wire Line
	6600 3950 6500 3950
Wire Wire Line
	6600 4050 6500 4050
Wire Wire Line
	6600 4250 6500 4250
Text Label 6500 3850 2    50   ~ 0
TCK
Text Label 6500 3950 2    50   ~ 0
TDO
Text Label 6500 4050 2    50   ~ 0
TMS
Text Label 6500 4250 2    50   ~ 0
TDI
$Comp
L power:+5V #PWR02
U 1 1 5F11A595
P 1600 850
F 0 "#PWR02" H 1600 700 50  0001 C CNN
F 1 "+5V" H 1615 1023 50  0000 C CNN
F 2 "" H 1600 850 50  0001 C CNN
F 3 "" H 1600 850 50  0001 C CNN
	1    1600 850 
	1    0    0    -1  
$EndComp
Wire Wire Line
	1600 1250 1700 1250
Wire Wire Line
	1600 1350 1700 1350
Text Label 1700 1250 0    50   ~ 0
D+
Text Label 1700 1350 0    50   ~ 0
D-
$Comp
L Device:C C1
U 1 1 5F1318D3
P 1950 1200
F 0 "C1" H 1835 1246 50  0000 R CNN
F 1 "100n" H 1835 1155 50  0000 R CNN
F 2 "Capacitors_SMD:C_0603_HandSoldering" H 1988 1050 50  0001 C CNN
F 3 "~" H 1950 1200 50  0001 C CNN
	1    1950 1200
	-1   0    0    -1  
$EndComp
$Comp
L power:+5V #PWR013
U 1 1 5F137373
P 7650 3500
F 0 "#PWR013" H 7650 3350 50  0001 C CNN
F 1 "+5V" H 7665 3673 50  0000 C CNN
F 2 "" H 7650 3500 50  0001 C CNN
F 3 "" H 7650 3500 50  0001 C CNN
	1    7650 3500
	1    0    0    -1  
$EndComp
$Comp
L power:+3.3V #PWR015
U 1 1 5F13789D
P 8750 3500
F 0 "#PWR015" H 8750 3350 50  0001 C CNN
F 1 "+3.3V" H 8765 3673 50  0000 C CNN
F 2 "" H 8750 3500 50  0001 C CNN
F 3 "" H 8750 3500 50  0001 C CNN
	1    8750 3500
	1    0    0    -1  
$EndComp
$Comp
L power:+1V2 #PWR014
U 1 1 5F137CD7
P 8550 3500
F 0 "#PWR014" H 8550 3350 50  0001 C CNN
F 1 "+1V2" H 8565 3673 50  0000 C CNN
F 2 "" H 8550 3500 50  0001 C CNN
F 3 "" H 8550 3500 50  0001 C CNN
	1    8550 3500
	-1   0    0    -1  
$EndComp
Wire Wire Line
	8550 3500 8550 3600
Wire Wire Line
	8550 3600 8750 3600
$Comp
L power:GND #PWR027
U 1 1 5F139D31
P 7600 4900
F 0 "#PWR027" H 7600 4650 50  0001 C CNN
F 1 "GND" H 7605 4727 50  0000 C CNN
F 2 "" H 7600 4900 50  0001 C CNN
F 3 "" H 7600 4900 50  0001 C CNN
	1    7600 4900
	1    0    0    -1  
$EndComp
Wire Wire Line
	1300 1650 1300 1700
$Comp
L power:GND #PWR06
U 1 1 5F11C0E1
P 1300 1700
F 0 "#PWR06" H 1300 1450 50  0001 C CNN
F 1 "GND" H 1305 1527 50  0000 C CNN
F 2 "" H 1300 1700 50  0001 C CNN
F 3 "" H 1300 1700 50  0001 C CNN
	1    1300 1700
	1    0    0    -1  
$EndComp
$Comp
L Device:CP C2
U 1 1 5F143B91
P 2300 1200
F 0 "C2" H 2418 1246 50  0000 L CNN
F 1 "10u" H 2418 1155 50  0000 L CNN
F 2 "Capacitors_Tantalum_SMD:CP_Tantalum_Case-R_EIA-2012-12_Hand" H 2338 1050 50  0001 C CNN
F 3 "~" H 2300 1200 50  0001 C CNN
	1    2300 1200
	1    0    0    -1  
$EndComp
Wire Wire Line
	2300 1050 1950 1050
Wire Wire Line
	3900 1050 3700 1050
$Comp
L power:+5V #PWR09
U 1 1 5F165EF6
P 2600 2850
F 0 "#PWR09" H 2600 2700 50  0001 C CNN
F 1 "+5V" H 2615 3023 50  0000 C CNN
F 2 "" H 2600 2850 50  0001 C CNN
F 3 "" H 2600 2850 50  0001 C CNN
	1    2600 2850
	-1   0    0    -1  
$EndComp
$Comp
L power:+3.3V #PWR08
U 1 1 5F16904E
P 1100 2850
F 0 "#PWR08" H 1100 2700 50  0001 C CNN
F 1 "+3.3V" H 1115 3023 50  0000 C CNN
F 2 "" H 1100 2850 50  0001 C CNN
F 3 "" H 1100 2850 50  0001 C CNN
	1    1100 2850
	1    0    0    -1  
$EndComp
$Comp
L Device:C C9
U 1 1 5F174AB2
P 3000 3850
F 0 "C9" H 3115 3896 50  0000 L CNN
F 1 "100n" H 3115 3805 50  0000 L CNN
F 2 "Capacitors_SMD:C_0603_HandSoldering" H 3038 3700 50  0001 C CNN
F 3 "~" H 3000 3850 50  0001 C CNN
	1    3000 3850
	1    0    0    -1  
$EndComp
$Comp
L power:GND #PWR017
U 1 1 5F175F58
P 1100 3900
F 0 "#PWR017" H 1100 3650 50  0001 C CNN
F 1 "GND" H 1105 3727 50  0000 C CNN
F 2 "" H 1100 3900 50  0001 C CNN
F 3 "" H 1100 3900 50  0001 C CNN
	1    1100 3900
	1    0    0    -1  
$EndComp
$Comp
L Device:R R1
U 1 1 5F1F9967
P 7250 1300
F 0 "R1" H 7320 1346 50  0000 L CNN
F 1 "10k" H 7320 1255 50  0000 L CNN
F 2 "Resistors_SMD:R_0603_HandSoldering" V 7180 1300 50  0001 C CNN
F 3 "~" H 7250 1300 50  0001 C CNN
	1    7250 1300
	1    0    0    -1  
$EndComp
$Comp
L power:+3.3V #PWR04
U 1 1 5F1FA0EF
P 7250 1050
F 0 "#PWR04" H 7250 900 50  0001 C CNN
F 1 "+3.3V" H 7265 1223 50  0000 C CNN
F 2 "" H 7250 1050 50  0001 C CNN
F 3 "" H 7250 1050 50  0001 C CNN
	1    7250 1050
	1    0    0    -1  
$EndComp
Wire Wire Line
	7250 1050 7250 1150
Text Label 7250 1650 3    50   ~ 0
nRST
Wire Wire Line
	5800 4250 6000 4250
Wire Wire Line
	5800 4150 6000 4150
Wire Wire Line
	5800 4050 6000 4050
Wire Wire Line
	5800 3950 6000 3950
$Comp
L SamacSys:10M02DCV36C8G IC2
U 1 1 5F0E80F5
P 4100 3250
F 0 "IC2" H 4950 3515 50  0000 C CNN
F 1 "10M02DCV36C8G" H 4950 3424 50  0000 C CNN
F 2 "KiCad:BGA36C40P6X6_340X347X54" H 5650 3350 50  0001 L CNN
F 3 "https://www.intel.com/content/dam/www/programmable/us/en/pdfs/literature/hb/max-10/m10_overview.pdf" H 5650 3250 50  0001 L CNN
F 4 "FPGA - Field Programmable Gate Array non-volatile FPGA, 27 I/O, 36WLCSP" H 5650 3150 50  0001 L CNN "Description"
F 5 "0.54" H 5650 3050 50  0001 L CNN "Height"
F 6 "989-10M02DCV36C8G" H 5650 2950 50  0001 L CNN "Mouser Part Number"
F 7 "https://www.mouser.co.uk/ProductDetail/Intel-Altera/10M02DCV36C8G?qs=G%2FX6g08h60tMfWr6DkEz3w%3D%3D" H 5650 2850 50  0001 L CNN "Mouser Price/Stock"
F 8 "Intel" H 5650 2750 50  0001 L CNN "Manufacturer_Name"
F 9 "10M02DCV36C8G" H 5650 2650 50  0001 L CNN "Manufacturer_Part_Number"
	1    4100 3250
	1    0    0    -1  
$EndComp
$Comp
L Device:CP C4
U 1 1 5F151990
P 3900 1200
F 0 "C4" H 3782 1246 50  0000 R CNN
F 1 "CP" H 3782 1155 50  0000 R CNN
F 2 "Capacitors_Tantalum_SMD:CP_Tantalum_Case-R_EIA-2012-12_Hand" H 3938 1050 50  0001 C CNN
F 3 "~" H 3900 1200 50  0001 C CNN
	1    3900 1200
	-1   0    0    -1  
$EndComp
$Comp
L Device:C C3
U 1 1 5F0F31D9
P 3550 1200
F 0 "C3" H 3435 1246 50  0000 R CNN
F 1 "C" H 3435 1155 50  0000 R CNN
F 2 "Capacitors_SMD:C_0603_HandSoldering" H 3588 1050 50  0001 C CNN
F 3 "~" H 3550 1200 50  0001 C CNN
	1    3550 1200
	-1   0    0    -1  
$EndComp
$Comp
L SamacSys:FT230XS-R IC1
U 1 1 5F21B2CC
P 1200 3050
F 0 "IC1" H 1850 3315 50  0000 C CNN
F 1 "FT230XS-R" H 1850 3224 50  0000 C CNN
F 2 "KiCad:SOP64P599X175-16N" H 2350 3150 50  0001 L CNN
F 3 "http://www.ftdichip.com/Support/Documents/DataSheets/ICs/DS_FT230X.pdf" H 2350 3050 50  0001 L CNN
F 4 "UART Interface RS232, RS422, RS485, SIE, UART 3MBd, 5 V" H 2350 2950 50  0001 L CNN "Description"
F 5 "1.753" H 2350 2850 50  0001 L CNN "Height"
F 6 "895-FT230XS-R" H 2350 2750 50  0001 L CNN "Mouser Part Number"
F 7 "https://www.mouser.co.uk/ProductDetail/FTDI/FT230XS-R?qs=Gp1Yz1mis3XyCLeYOseSng%3D%3D" H 2350 2650 50  0001 L CNN "Mouser Price/Stock"
F 8 "FTDI Chip" H 2350 2550 50  0001 L CNN "Manufacturer_Name"
F 9 "FT230XS-R" H 2350 2450 50  0001 L CNN "Manufacturer_Part_Number"
	1    1200 3050
	1    0    0    -1  
$EndComp
Wire Wire Line
	1200 3050 1050 3050
Wire Wire Line
	1200 3250 1100 3250
Wire Wire Line
	1100 3250 1100 2850
Wire Wire Line
	1200 3350 1050 3350
Wire Wire Line
	1200 3450 1100 3450
Wire Wire Line
	1100 3450 1100 3900
Wire Wire Line
	1200 3750 1050 3750
Wire Wire Line
	2500 3450 2600 3450
Wire Wire Line
	2600 3450 2600 2850
Wire Wire Line
	2700 3350 2700 4000
Wire Wire Line
	2500 3350 2700 3350
Wire Wire Line
	2500 3750 2750 3750
$Comp
L power:GND #PWR018
U 1 1 5F23DC99
P 2700 4000
F 0 "#PWR018" H 2700 3750 50  0001 C CNN
F 1 "GND" H 2705 3827 50  0000 C CNN
F 2 "" H 2700 4000 50  0001 C CNN
F 3 "" H 2700 4000 50  0001 C CNN
	1    2700 4000
	1    0    0    -1  
$EndComp
Wire Wire Line
	3000 3650 3000 3700
Wire Wire Line
	2500 3650 3000 3650
$Comp
L power:GND #PWR019
U 1 1 5F242F18
P 3000 4000
F 0 "#PWR019" H 3000 3750 50  0001 C CNN
F 1 "GND" H 3005 3827 50  0000 C CNN
F 2 "" H 3000 4000 50  0001 C CNN
F 3 "" H 3000 4000 50  0001 C CNN
	1    3000 4000
	1    0    0    -1  
$EndComp
Text Label 2750 3750 0    50   ~ 0
D+
Text Label 1050 3750 2    50   ~ 0
D-
Text Label 1050 3050 2    50   ~ 0
D6
Text Label 1050 3350 2    50   ~ 0
C6
$Comp
L SamacSys:ECS-5032MV-100-BN-TR Y1
U 1 1 5F2561BC
P 950 4650
F 0 "Y1" H 1700 4915 50  0000 C CNN
F 1 "ECS-5032MV-100-BN-TR" H 1700 4824 50  0000 C CNN
F 2 "KiCad:ECS5032MV100BNTR" H 2300 4750 50  0001 L CNN
F 3 "https://componentsearchengine.com/Datasheets/1/ECS-5032MV-100-BN-TR.pdf" H 2300 4650 50  0001 L CNN
F 4 "Standard Clock Oscillators 10MHz 1.8-3.3V 50ppm -40C +85C" H 2300 4550 50  0001 L CNN "Description"
F 5 "1.3" H 2300 4450 50  0001 L CNN "Height"
F 6 "520-5032MV-100-BNT" H 2300 4350 50  0001 L CNN "Mouser Part Number"
F 7 "https://www.mouser.co.uk/ProductDetail/ECS/ECS-5032MV-100-BN-TR?qs=9r4v7xj2LnkgFbIraQP%2F3g%3D%3D" H 2300 4250 50  0001 L CNN "Mouser Price/Stock"
F 8 "ECS" H 2300 4150 50  0001 L CNN "Manufacturer_Name"
F 9 "ECS-5032MV-100-BN-TR" H 2300 4050 50  0001 L CNN "Manufacturer_Part_Number"
	1    950  4650
	1    0    0    -1  
$EndComp
$Comp
L power:GND #PWR023
U 1 1 5F25700E
P 2450 4750
F 0 "#PWR023" H 2450 4500 50  0001 C CNN
F 1 "GND" H 2455 4577 50  0000 C CNN
F 2 "" H 2450 4750 50  0001 C CNN
F 3 "" H 2450 4750 50  0001 C CNN
	1    2450 4750
	1    0    0    -1  
$EndComp
$Comp
L power:+3.3V #PWR022
U 1 1 5F2571E3
P 950 4650
F 0 "#PWR022" H 950 4500 50  0001 C CNN
F 1 "+3.3V" H 965 4823 50  0000 C CNN
F 2 "" H 950 4650 50  0001 C CNN
F 3 "" H 950 4650 50  0001 C CNN
	1    950  4650
	1    0    0    -1  
$EndComp
Wire Wire Line
	2450 4650 2550 4650
Text Label 2550 4650 0    50   ~ 0
clk
$Comp
L Device:C C10
U 1 1 5F25B413
P 2850 4700
F 0 "C10" H 2735 4746 50  0000 R CNN
F 1 "100n" H 2735 4655 50  0000 R CNN
F 2 "Capacitors_SMD:C_0603_HandSoldering" H 2888 4550 50  0001 C CNN
F 3 "~" H 2850 4700 50  0001 C CNN
	1    2850 4700
	-1   0    0    -1  
$EndComp
$Comp
L power:+3.3V #PWR021
U 1 1 5F25B94B
P 2850 4550
F 0 "#PWR021" H 2850 4400 50  0001 C CNN
F 1 "+3.3V" H 2865 4723 50  0000 C CNN
F 2 "" H 2850 4550 50  0001 C CNN
F 3 "" H 2850 4550 50  0001 C CNN
	1    2850 4550
	1    0    0    -1  
$EndComp
$Comp
L power:GND #PWR025
U 1 1 5F25BC60
P 2850 4850
F 0 "#PWR025" H 2850 4600 50  0001 C CNN
F 1 "GND" H 2855 4677 50  0000 C CNN
F 2 "" H 2850 4850 50  0001 C CNN
F 3 "" H 2850 4850 50  0001 C CNN
	1    2850 4850
	1    0    0    -1  
$EndComp
Wire Wire Line
	7650 3600 7600 3600
Text Label 7600 3600 2    50   ~ 0
C2
Text Label 3800 4550 2    50   ~ 0
C2
Text Label 3800 3950 2    50   ~ 0
B2
Wire Wire Line
	7650 3700 7600 3700
Text Label 7600 3700 2    50   ~ 0
B2
Wire Wire Line
	7650 3800 7600 3800
Text Label 7600 3800 2    50   ~ 0
A2
Wire Wire Line
	4100 4050 3950 4050
Wire Wire Line
	3950 4050 3950 5100
$Comp
L power:GND #PWR029
U 1 1 5F2A9F3F
P 3950 5100
F 0 "#PWR029" H 3950 4850 50  0001 C CNN
F 1 "GND" H 3955 4927 50  0000 C CNN
F 2 "" H 3950 5100 50  0001 C CNN
F 3 "" H 3950 5100 50  0001 C CNN
	1    3950 5100
	1    0    0    -1  
$EndComp
Wire Wire Line
	7650 3900 7600 3900
Text Label 7600 3900 2    50   ~ 0
A3
Text Label 3800 3350 2    50   ~ 0
A2
Text Label 3800 3450 2    50   ~ 0
A3
Wire Wire Line
	7650 4000 7600 4000
Text Label 7600 4000 2    50   ~ 0
A4
Wire Wire Line
	7650 4100 7600 4100
Text Label 7600 4100 2    50   ~ 0
B4
Wire Wire Line
	7650 4200 7600 4200
Wire Wire Line
	7650 4300 7600 4300
Text Label 7600 4300 2    50   ~ 0
B5
Text Label 7600 4400 2    50   ~ 0
B6
Wire Wire Line
	7650 4400 7600 4400
Wire Wire Line
	7650 4500 7600 4500
Text Label 7600 4500 2    50   ~ 0
C5
Text Label 7600 4600 2    50   ~ 0
C6
Text Label 3800 3550 2    50   ~ 0
A4
Text Label 3800 4150 2    50   ~ 0
B4
Text Label 3800 4250 2    50   ~ 0
B5
Text Label 3800 4350 2    50   ~ 0
B6
Text Label 3800 4850 2    50   ~ 0
C5
Text Label 3800 4950 2    50   ~ 0
C6
Wire Wire Line
	8750 3700 8650 3700
Text Label 8650 3700 2    50   ~ 0
D1
Wire Wire Line
	8750 3800 8650 3800
Text Label 8650 3800 2    50   ~ 0
clk
Wire Wire Line
	8750 3900 8650 3900
Text Label 8650 3900 2    50   ~ 0
E2
Wire Wire Line
	8750 4000 8650 4000
Wire Wire Line
	8750 4100 8650 4100
Text Label 8650 4000 2    50   ~ 0
F2
Text Label 8650 4100 2    50   ~ 0
E3
Wire Wire Line
	8750 4200 8650 4200
Text Label 8650 4200 2    50   ~ 0
F3
Wire Wire Line
	8750 4300 8650 4300
Wire Wire Line
	8750 4400 8650 4400
Text Label 8650 4300 2    50   ~ 0
F4
Text Label 8650 4400 2    50   ~ 0
E4
Wire Wire Line
	8750 4500 8650 4500
Wire Wire Line
	8750 4600 8650 4600
Text Label 8650 4500 2    50   ~ 0
E5
Text Label 8650 4600 2    50   ~ 0
E6
Wire Wire Line
	8750 4700 8650 4700
Text Label 8650 4700 2    50   ~ 0
D5
Wire Wire Line
	7650 4600 7600 4600
Text Label 8650 4800 2    50   ~ 0
D6
Text Label 7600 4200 2    50   ~ 0
nRST
$Comp
L Connector_Generic:Conn_01x14 J3
U 1 1 5F3107F8
P 7850 4100
F 0 "J3" H 7930 4092 50  0000 L CNN
F 1 "Conn_01x14" H 7930 4001 50  0000 L CNN
F 2 "Pin_Headers:Pin_Header_Straight_1x14_Pitch2.54mm" H 7850 4100 50  0001 C CNN
F 3 "~" H 7850 4100 50  0001 C CNN
	1    7850 4100
	1    0    0    -1  
$EndComp
$Comp
L Connector_Generic:Conn_01x14 J4
U 1 1 5F312056
P 8950 4100
F 0 "J4" H 9030 4092 50  0000 L CNN
F 1 "Conn_01x14" H 9030 4001 50  0000 L CNN
F 2 "Pin_Headers:Pin_Header_Straight_1x14_Pitch2.54mm" H 8950 4100 50  0001 C CNN
F 3 "~" H 8950 4100 50  0001 C CNN
	1    8950 4100
	1    0    0    -1  
$EndComp
Wire Wire Line
	8750 4800 8650 4800
Wire Wire Line
	7650 4700 7600 4700
Wire Wire Line
	7600 4700 7600 4800
Wire Wire Line
	7650 4800 7600 4800
Connection ~ 7600 4800
Wire Wire Line
	7600 4800 7600 4900
Text Label 6000 3650 0    50   ~ 0
D5
Text Label 6000 3750 0    50   ~ 0
D6
Text Label 6000 3950 0    50   ~ 0
E2
Text Label 6000 4050 0    50   ~ 0
E3
Text Label 6000 4150 0    50   ~ 0
E4
Text Label 6000 4250 0    50   ~ 0
E5
Text Label 6000 4350 0    50   ~ 0
E6
Text Label 6000 4550 0    50   ~ 0
F2
Text Label 6000 4650 0    50   ~ 0
F3
Text Label 6000 4750 0    50   ~ 0
F4
Text Label 6000 3250 0    50   ~ 0
D1
Wire Wire Line
	7250 1450 7250 1650
Text Notes 7300 650  0    50   ~ 0
CONF_DONE, DEV_OE, nCONFIG, nSTATUS
$Comp
L Device:R R2
U 1 1 5F362DBD
P 7550 1300
F 0 "R2" H 7620 1346 50  0000 L CNN
F 1 "10k" H 7620 1255 50  0000 L CNN
F 2 "Resistors_SMD:R_0603_HandSoldering" V 7480 1300 50  0001 C CNN
F 3 "~" H 7550 1300 50  0001 C CNN
	1    7550 1300
	1    0    0    -1  
$EndComp
$Comp
L Device:R R3
U 1 1 5F363087
P 7850 1300
F 0 "R3" H 7920 1346 50  0000 L CNN
F 1 "10k" H 7920 1255 50  0000 L CNN
F 2 "Resistors_SMD:R_0603_HandSoldering" V 7780 1300 50  0001 C CNN
F 3 "~" H 7850 1300 50  0001 C CNN
	1    7850 1300
	1    0    0    -1  
$EndComp
$Comp
L Device:R R4
U 1 1 5F363484
P 8150 1300
F 0 "R4" H 8220 1346 50  0000 L CNN
F 1 "10k" H 8220 1255 50  0000 L CNN
F 2 "Resistors_SMD:R_0603_HandSoldering" V 8080 1300 50  0001 C CNN
F 3 "~" H 8150 1300 50  0001 C CNN
	1    8150 1300
	1    0    0    -1  
$EndComp
$Comp
L Device:R R5
U 1 1 5F36377D
P 8450 1300
F 0 "R5" H 8520 1346 50  0000 L CNN
F 1 "10k" H 8520 1255 50  0000 L CNN
F 2 "Resistors_SMD:R_0603_HandSoldering" V 8380 1300 50  0001 C CNN
F 3 "~" H 8450 1300 50  0001 C CNN
	1    8450 1300
	1    0    0    -1  
$EndComp
Wire Wire Line
	8450 1050 8450 1150
Connection ~ 7250 1050
Wire Wire Line
	8150 1150 8150 1050
Connection ~ 8150 1050
Wire Wire Line
	7850 1150 7850 1050
Wire Wire Line
	7250 1050 7550 1050
Connection ~ 7850 1050
Wire Wire Line
	7850 1050 8150 1050
Wire Wire Line
	7550 1150 7550 1050
Connection ~ 7550 1050
Wire Wire Line
	7550 1050 7850 1050
Wire Wire Line
	7550 1450 7550 1650
Wire Wire Line
	7850 1450 7850 1650
Wire Wire Line
	8150 1450 8150 1650
Wire Wire Line
	8450 1450 8450 1650
Wire Wire Line
	9650 1150 9650 1050
$Comp
L power:GND #PWR05
U 1 1 5F392BFB
P 9650 1650
F 0 "#PWR05" H 9650 1400 50  0001 C CNN
F 1 "GND" H 9655 1477 50  0000 C CNN
F 2 "" H 9650 1650 50  0001 C CNN
F 3 "" H 9650 1650 50  0001 C CNN
	1    9650 1650
	1    0    0    -1  
$EndComp
Wire Wire Line
	9650 1650 9650 1450
Text Label 9650 1050 1    50   ~ 0
TCK
Wire Wire Line
	4100 3750 4000 3750
Wire Wire Line
	4000 3750 4000 3250
Wire Wire Line
	4000 3100 4200 3100
Wire Wire Line
	4200 3100 4200 3050
Wire Wire Line
	3950 3050 3950 3850
Wire Wire Line
	4100 3250 4000 3250
Connection ~ 4000 3250
Wire Wire Line
	4000 3250 4000 3100
$Comp
L power:+2V5 #PWR011
U 1 1 5F3A592A
P 4200 3050
F 0 "#PWR011" H 4200 2900 50  0001 C CNN
F 1 "+2V5" H 4215 3223 50  0000 C CNN
F 2 "" H 4200 3050 50  0001 C CNN
F 3 "" H 4200 3050 50  0001 C CNN
	1    4200 3050
	1    0    0    -1  
$EndComp
Text Label 7550 1650 3    50   ~ 0
A2
Text Notes 7550 1800 3    50   ~ 0
CONF_DONE
Text Label 7850 1650 3    50   ~ 0
B5
Text Notes 7850 1800 3    50   ~ 0
DEV_OE
Text Label 8150 1650 3    50   ~ 0
A4
Text Notes 8150 1800 3    50   ~ 0
nCONFIG
Text Label 8450 1650 3    50   ~ 0
B2
Text Notes 8450 1800 3    50   ~ 0
nSTATUS
Connection ~ 2300 1050
Wire Wire Line
	2300 1050 2600 1050
$Comp
L power:+3.3V #PWR01
U 1 1 5F3E531D
P 3700 750
F 0 "#PWR01" H 3700 600 50  0001 C CNN
F 1 "+3.3V" H 3715 923 50  0000 C CNN
F 2 "" H 3700 750 50  0001 C CNN
F 3 "" H 3700 750 50  0001 C CNN
	1    3700 750 
	1    0    0    -1  
$EndComp
Wire Wire Line
	3400 1050 3550 1050
Connection ~ 3550 1050
Wire Wire Line
	3700 750  3700 1050
Connection ~ 3700 1050
Wire Wire Line
	3700 1050 3550 1050
Wire Wire Line
	1600 850  1600 1050
Wire Wire Line
	1600 1050 1950 1050
Connection ~ 1950 1050
Wire Wire Line
	5550 1050 5200 1050
Connection ~ 5200 1050
$Comp
L Device:CP C6
U 1 1 5F15B747
P 5550 1200
F 0 "C6" H 5432 1246 50  0000 R CNN
F 1 "CP" H 5432 1155 50  0000 R CNN
F 2 "Capacitors_Tantalum_SMD:CP_Tantalum_Case-R_EIA-2012-12_Hand" H 5588 1050 50  0001 C CNN
F 3 "~" H 5550 1200 50  0001 C CNN
	1    5550 1200
	-1   0    0    -1  
$EndComp
$Comp
L Device:C C5
U 1 1 5F0F43C6
P 5200 1200
F 0 "C5" H 5315 1246 50  0000 L CNN
F 1 "C" H 5315 1155 50  0000 L CNN
F 2 "Capacitors_SMD:C_0603_HandSoldering" H 5238 1050 50  0001 C CNN
F 3 "~" H 5200 1200 50  0001 C CNN
	1    5200 1200
	1    0    0    -1  
$EndComp
$Comp
L RegLin_RK:MIC5504-1.2YMT-TZ U2
U 1 1 5F28A165
P 4600 900
F 0 "U2" H 4600 1017 50  0000 C CNN
F 1 "MIC5504-1.2YMT-TZ" H 4600 926 50  0000 C CNN
F 2 "Housings_DFN_QFN:UDFN-4_1x1mm_Pitch0.65mm" H 4600 925 50  0001 C CNN
F 3 "" H 4600 900 50  0001 C CNN
	1    4600 900 
	1    0    0    -1  
$EndComp
Wire Wire Line
	5000 1050 5200 1050
$Comp
L power:+1V2 #PWR07
U 1 1 5F47B29E
P 5600 1750
F 0 "#PWR07" H 5600 1600 50  0001 C CNN
F 1 "+1V2" H 5615 1923 50  0000 C CNN
F 2 "" H 5600 1750 50  0001 C CNN
F 3 "" H 5600 1750 50  0001 C CNN
	1    5600 1750
	-1   0    0    -1  
$EndComp
Wire Wire Line
	5600 1750 5250 1750
Connection ~ 5250 1750
$Comp
L Device:CP C8
U 1 1 5F47B2AD
P 5600 1900
F 0 "C8" H 5482 1946 50  0000 R CNN
F 1 "CP" H 5482 1855 50  0000 R CNN
F 2 "Capacitors_Tantalum_SMD:CP_Tantalum_Case-R_EIA-2012-12_Hand" H 5638 1750 50  0001 C CNN
F 3 "~" H 5600 1900 50  0001 C CNN
	1    5600 1900
	-1   0    0    -1  
$EndComp
$Comp
L Device:C C7
U 1 1 5F47B2B3
P 5250 1900
F 0 "C7" H 5365 1946 50  0000 L CNN
F 1 "C" H 5365 1855 50  0000 L CNN
F 2 "Capacitors_SMD:C_0603_HandSoldering" H 5288 1750 50  0001 C CNN
F 3 "~" H 5250 1900 50  0001 C CNN
	1    5250 1900
	1    0    0    -1  
$EndComp
$Comp
L RegLin_RK:MIC5504-1.2YMT-TZ U3
U 1 1 5F47B2B9
P 4650 1600
F 0 "U3" H 4650 1717 50  0000 C CNN
F 1 "MIC5504-1.2YMT-TZ" H 4650 1626 50  0000 C CNN
F 2 "Housings_DFN_QFN:UDFN-4_1x1mm_Pitch0.65mm" H 4650 1625 50  0001 C CNN
F 3 "" H 4650 1600 50  0001 C CNN
	1    4650 1600
	1    0    0    -1  
$EndComp
Wire Wire Line
	5050 1750 5250 1750
Wire Wire Line
	4650 2150 5050 2150
Connection ~ 5600 1750
Wire Wire Line
	4250 1750 4150 1750
Wire Wire Line
	5050 1950 5050 2150
Wire Wire Line
	5050 2150 5250 2150
Wire Wire Line
	5600 2150 5600 2050
Connection ~ 5050 2150
Wire Wire Line
	5250 2050 5250 2150
Connection ~ 5250 2150
Wire Wire Line
	5250 2150 5600 2150
$Comp
L RegLin_RK:MIC5504-1.2YMT-TZ U1
U 1 1 5F289295
P 3000 900
F 0 "U1" H 3000 1017 50  0000 C CNN
F 1 "MIC5504-1.2YMT-TZ" H 3000 926 50  0000 C CNN
F 2 "Housings_DFN_QFN:UDFN-4_1x1mm_Pitch0.65mm" H 3000 925 50  0001 C CNN
F 3 "" H 3000 900 50  0001 C CNN
	1    3000 900 
	1    0    0    -1  
$EndComp
Wire Wire Line
	1950 1350 1950 1650
Wire Wire Line
	1950 1650 1300 1650
Connection ~ 1950 1650
Connection ~ 1300 1650
Wire Wire Line
	1300 1650 1200 1650
Wire Wire Line
	2300 1350 2300 1650
Connection ~ 2300 1650
Wire Wire Line
	2300 1650 1950 1650
Wire Wire Line
	3000 1450 3000 1650
Connection ~ 3000 1650
Wire Wire Line
	3000 1650 2300 1650
Wire Wire Line
	3400 1250 3400 1650
Connection ~ 3400 1650
Wire Wire Line
	3400 1650 3000 1650
Wire Wire Line
	3550 1350 3550 1650
Connection ~ 3550 1650
Wire Wire Line
	3550 1650 3400 1650
Wire Wire Line
	3900 1350 3900 1450
Wire Wire Line
	3900 1650 3550 1650
Wire Wire Line
	4600 1450 5000 1450
Wire Wire Line
	5000 1250 5000 1450
Wire Wire Line
	5000 1450 5200 1450
Wire Wire Line
	5550 1450 5550 1350
Connection ~ 5000 1450
Connection ~ 5200 1450
Wire Wire Line
	5200 1450 5550 1450
Wire Wire Line
	5200 1350 5200 1450
$Comp
L power:+2V5 #PWR03
U 1 1 5F502AEB
P 5550 1050
F 0 "#PWR03" H 5550 900 50  0001 C CNN
F 1 "+2V5" H 5565 1223 50  0000 C CNN
F 2 "" H 5550 1050 50  0001 C CNN
F 3 "" H 5550 1050 50  0001 C CNN
	1    5550 1050
	1    0    0    -1  
$EndComp
Connection ~ 5550 1050
Text Notes 2850 1450 2    50   ~ 0
3V3
Text Notes 4400 1450 2    50   ~ 0
2V5
Text Notes 4500 2150 2    50   ~ 0
1V2
$Comp
L Device:R R6
U 1 1 5F524AC7
P 8750 1300
F 0 "R6" H 8820 1346 50  0000 L CNN
F 1 "10k" H 8820 1255 50  0000 L CNN
F 2 "Resistors_SMD:R_0603_HandSoldering" V 8680 1300 50  0001 C CNN
F 3 "~" H 8750 1300 50  0001 C CNN
	1    8750 1300
	1    0    0    -1  
$EndComp
$Comp
L Device:R R7
U 1 1 5F524DD6
P 9050 1300
F 0 "R7" H 9120 1346 50  0000 L CNN
F 1 "10k" H 9120 1255 50  0000 L CNN
F 2 "Resistors_SMD:R_0603_HandSoldering" V 8980 1300 50  0001 C CNN
F 3 "~" H 9050 1300 50  0001 C CNN
	1    9050 1300
	1    0    0    -1  
$EndComp
Wire Wire Line
	8150 1050 8450 1050
Wire Wire Line
	8450 1050 8750 1050
Wire Wire Line
	9050 1050 9050 1150
Connection ~ 8450 1050
Wire Wire Line
	8750 1150 8750 1050
Connection ~ 8750 1050
Wire Wire Line
	8750 1050 9050 1050
Wire Wire Line
	8750 1450 8750 1650
Wire Wire Line
	9050 1450 9050 1650
Text Label 8750 1650 3    50   ~ 0
TMS
Text Label 9050 1650 3    50   ~ 0
TDI
Wire Wire Line
	3900 1050 4150 1050
Connection ~ 3900 1050
Wire Wire Line
	4150 1050 4150 1250
Connection ~ 4150 1050
Wire Wire Line
	4150 1050 4200 1050
Wire Wire Line
	4600 1450 3900 1450
Connection ~ 4600 1450
Connection ~ 3900 1450
Wire Wire Line
	3900 1450 3900 1650
Wire Wire Line
	4650 2150 3900 2150
Wire Wire Line
	3900 2150 3900 1650
Connection ~ 4650 2150
Connection ~ 3900 1650
NoConn ~ 1200 3150
NoConn ~ 1200 3550
NoConn ~ 1200 3650
NoConn ~ 2500 3050
NoConn ~ 2500 3150
NoConn ~ 2500 3250
NoConn ~ 2500 3550
$Comp
L Device:R R8
U 1 1 5F38CED6
P 9650 1300
F 0 "R8" H 9720 1346 50  0000 L CNN
F 1 "10k" H 9720 1255 50  0000 L CNN
F 2 "Resistors_SMD:R_0603_HandSoldering" V 9580 1300 50  0001 C CNN
F 3 "~" H 9650 1300 50  0001 C CNN
	1    9650 1300
	1    0    0    -1  
$EndComp
$Comp
L Device:R R9
U 1 1 5F673B32
P 10350 1300
F 0 "R9" H 10420 1346 50  0000 L CNN
F 1 "10k" H 10420 1255 50  0000 L CNN
F 2 "Resistors_SMD:R_0603_HandSoldering" V 10280 1300 50  0001 C CNN
F 3 "~" H 10350 1300 50  0001 C CNN
	1    10350 1300
	1    0    0    -1  
$EndComp
$Comp
L power:+5V #PWR0101
U 1 1 5F674A6F
P 10350 1050
F 0 "#PWR0101" H 10350 900 50  0001 C CNN
F 1 "+5V" H 10365 1223 50  0000 C CNN
F 2 "" H 10350 1050 50  0001 C CNN
F 3 "" H 10350 1050 50  0001 C CNN
	1    10350 1050
	1    0    0    -1  
$EndComp
$Comp
L power:GND #PWR0102
U 1 1 5F674DA6
P 10350 1900
F 0 "#PWR0102" H 10350 1650 50  0001 C CNN
F 1 "GND" H 10355 1727 50  0000 C CNN
F 2 "" H 10350 1900 50  0001 C CNN
F 3 "" H 10350 1900 50  0001 C CNN
	1    10350 1900
	1    0    0    -1  
$EndComp
$Comp
L Device:LED D1
U 1 1 5F674FA6
P 10350 1650
F 0 "D1" V 10389 1532 50  0000 R CNN
F 1 "LED" V 10298 1532 50  0000 R CNN
F 2 "Diodes_SMD:D_0603" H 10350 1650 50  0001 C CNN
F 3 "~" H 10350 1650 50  0001 C CNN
	1    10350 1650
	0    -1   -1   0   
$EndComp
Wire Wire Line
	10350 1050 10350 1150
Wire Wire Line
	10350 1450 10350 1500
Wire Wire Line
	10350 1800 10350 1900
$Comp
L Connector:TestPoint TP1
U 1 1 5F6913BE
P 5750 1050
F 0 "TP1" H 5808 1168 50  0000 L CNN
F 1 "TestPoint" H 5808 1077 50  0000 L CNN
F 2 "Measurement_Points:Measurement_Point_Round-SMD-Pad_Small" H 5950 1050 50  0001 C CNN
F 3 "~" H 5950 1050 50  0001 C CNN
	1    5750 1050
	1    0    0    -1  
$EndComp
Wire Wire Line
	5750 1050 5550 1050
$Comp
L Connector:USB_B_Micro J1
U 1 1 5F0D47E2
P 1300 1250
F 0 "J1" H 1357 1717 50  0000 C CNN
F 1 "USB_B_Micro" H 1357 1626 50  0000 C CNN
F 2 "Connectors:USB_Micro-B" H 1450 1200 50  0001 C CNN
F 3 "~" H 1450 1200 50  0001 C CNN
	1    1300 1250
	1    0    0    -1  
$EndComp
Connection ~ 1600 1050
Wire Wire Line
	2600 1250 2600 1050
Connection ~ 2600 1050
Wire Wire Line
	4200 1250 4150 1250
Connection ~ 4150 1250
Wire Wire Line
	4150 1250 4150 1750
Wire Wire Line
	4150 1950 4150 1750
Wire Wire Line
	4150 1950 4250 1950
Connection ~ 4150 1750
$EndSCHEMATC
